src/wave.vcd
$date
	Thu Oct  9 00:40:41 2025
$end
$version
	QuestaSim Version 10.6c
$end
$timescale
	1ns
$end

$scope module uvm_root $end
$upscope $end

$scope module fifo_top $end
$var reg 1 ! wclk $end
$var reg 1 " rclk $end
$var reg 1 # rrst_n $end
$var reg 1 $ wrst_n $end

$scope module dut $end
$var parameter 32 % DSIZE $end
$var parameter 32 & ASIZE $end
$var wire 1 ' rdata [7] $end
$var wire 1 ( rdata [6] $end
$var wire 1 ) rdata [5] $end
$var wire 1 * rdata [4] $end
$var wire 1 + rdata [3] $end
$var wire 1 , rdata [2] $end
$var wire 1 - rdata [1] $end
$var wire 1 . rdata [0] $end
$var wire 1 / wfull $end
$var wire 1 0 rempty $end
$var wire 1 1 wdata [7] $end
$var wire 1 2 wdata [6] $end
$var wire 1 3 wdata [5] $end
$var wire 1 4 wdata [4] $end
$var wire 1 5 wdata [3] $end
$var wire 1 6 wdata [2] $end
$var wire 1 7 wdata [1] $end
$var wire 1 8 wdata [0] $end
$var wire 1 9 winc $end
$var wire 1 : wclk $end
$var wire 1 ; wrst_n $end
$var wire 1 < rinc $end
$var wire 1 = rclk $end
$var wire 1 > rrst_n $end
$var wire 1 ? waddr [3] $end
$var wire 1 @ waddr [2] $end
$var wire 1 A waddr [1] $end
$var wire 1 B waddr [0] $end
$var wire 1 C raddr [3] $end
$var wire 1 D raddr [2] $end
$var wire 1 E raddr [1] $end
$var wire 1 F raddr [0] $end
$var wire 1 G wptr [4] $end
$var wire 1 H wptr [3] $end
$var wire 1 I wptr [2] $end
$var wire 1 J wptr [1] $end
$var wire 1 K wptr [0] $end
$var wire 1 L rptr [4] $end
$var wire 1 M rptr [3] $end
$var wire 1 N rptr [2] $end
$var wire 1 O rptr [1] $end
$var wire 1 P rptr [0] $end
$var wire 1 Q wq2_rptr [4] $end
$var wire 1 R wq2_rptr [3] $end
$var wire 1 S wq2_rptr [2] $end
$var wire 1 T wq2_rptr [1] $end
$var wire 1 U wq2_rptr [0] $end
$var wire 1 V rq2_wptr [4] $end
$var wire 1 W rq2_wptr [3] $end
$var wire 1 X rq2_wptr [2] $end
$var wire 1 Y rq2_wptr [1] $end
$var wire 1 Z rq2_wptr [0] $end

$scope module sync_r2w $end
$var parameter 32 [ SIZE $end
$var reg 5 \ q2 [4:0] $end
$var wire 1 L din [4] $end
$var wire 1 M din [3] $end
$var wire 1 N din [2] $end
$var wire 1 O din [1] $end
$var wire 1 P din [0] $end
$var wire 1 : clk $end
$var wire 1 ; rst_n $end
$var reg 5 ] q1 [4:0] $end
$upscope $end

$scope module sync_w2r $end
$var parameter 32 ^ SIZE $end
$var reg 5 _ q2 [4:0] $end
$var wire 1 G din [4] $end
$var wire 1 H din [3] $end
$var wire 1 I din [2] $end
$var wire 1 J din [1] $end
$var wire 1 K din [0] $end
$var wire 1 = clk $end
$var wire 1 > rst_n $end
$var reg 5 ` q1 [4:0] $end
$upscope $end

$scope module fifomem $end
$var parameter 32 a DATA_SIZE $end
$var parameter 32 b ADDR_SIZE $end
$var parameter 32 c DEPTH $end
$var wire 1 ' rdata [7] $end
$var wire 1 ( rdata [6] $end
$var wire 1 ) rdata [5] $end
$var wire 1 * rdata [4] $end
$var wire 1 + rdata [3] $end
$var wire 1 , rdata [2] $end
$var wire 1 - rdata [1] $end
$var wire 1 . rdata [0] $end
$var wire 1 1 wdata [7] $end
$var wire 1 2 wdata [6] $end
$var wire 1 3 wdata [5] $end
$var wire 1 4 wdata [4] $end
$var wire 1 5 wdata [3] $end
$var wire 1 6 wdata [2] $end
$var wire 1 7 wdata [1] $end
$var wire 1 8 wdata [0] $end
$var wire 1 ? waddr [3] $end
$var wire 1 @ waddr [2] $end
$var wire 1 A waddr [1] $end
$var wire 1 B waddr [0] $end
$var wire 1 C raddr [3] $end
$var wire 1 D raddr [2] $end
$var wire 1 E raddr [1] $end
$var wire 1 F raddr [0] $end
$var wire 1 9 wclk_en $end
$var wire 1 / wfull $end
$var wire 1 : wclk $end
$upscope $end

$scope module rptr_empty $end
$var parameter 32 d ADDR_SIZE $end
$var reg 1 e rempty $end
$var wire 1 C raddr [3] $end
$var wire 1 D raddr [2] $end
$var wire 1 E raddr [1] $end
$var wire 1 F raddr [0] $end
$var reg 5 f rptr [4:0] $end
$var wire 1 V rq2_wptr [4] $end
$var wire 1 W rq2_wptr [3] $end
$var wire 1 X rq2_wptr [2] $end
$var wire 1 Y rq2_wptr [1] $end
$var wire 1 Z rq2_wptr [0] $end
$var wire 1 < rinc $end
$var wire 1 = rclk $end
$var wire 1 > rrst_n $end
$var reg 5 g rbin [4:0] $end
$var wire 1 h rgray_next [4] $end
$var wire 1 i rgray_next [3] $end
$var wire 1 j rgray_next [2] $end
$var wire 1 k rgray_next [1] $end
$var wire 1 l rgray_next [0] $end
$var wire 1 m rbin_next [4] $end
$var wire 1 n rbin_next [3] $end
$var wire 1 o rbin_next [2] $end
$var wire 1 p rbin_next [1] $end
$var wire 1 q rbin_next [0] $end
$var wire 1 r rempty_val $end
$upscope $end

$scope module wptr_full $end
$var parameter 32 s ADDR_SIZE $end
$var reg 1 t wfull $end
$var wire 1 ? waddr [3] $end
$var wire 1 @ waddr [2] $end
$var wire 1 A waddr [1] $end
$var wire 1 B waddr [0] $end
$var reg 5 u wptr [4:0] $end
$var wire 1 Q wq2_rptr [4] $end
$var wire 1 R wq2_rptr [3] $end
$var wire 1 S wq2_rptr [2] $end
$var wire 1 T wq2_rptr [1] $end
$var wire 1 U wq2_rptr [0] $end
$var wire 1 9 winc $end
$var wire 1 : wclk $end
$var wire 1 ; wrst_n $end
$var reg 5 v wbin [4:0] $end
$var wire 1 w wgray_next [4] $end
$var wire 1 x wgray_next [3] $end
$var wire 1 y wgray_next [2] $end
$var wire 1 z wgray_next [1] $end
$var wire 1 { wgray_next [0] $end
$var wire 1 | wbin_next [4] $end
$var wire 1 } wbin_next [3] $end
$var wire 1 ~ wbin_next [2] $end
$var wire 1 !! wbin_next [1] $end
$var wire 1 "! wbin_next [0] $end
$var wire 1 #! wfull_val $end
$upscope $end
$upscope $end
$upscope $end

$scope begin uvm_pkg $end
$var parameter 32 $! UVM_HDL_MAX_WIDTH $end
$var parameter 32 %! UVM_STREAMBITS $end
$var parameter 32 &! UVM_RADIX $end
$var parameter 32 '! UVM_MACRO_NUMFLAGS $end
$var parameter 32 (! UVM_DEFAULT $end
$var parameter 32 )! UVM_ALL_ON $end
$var parameter 32 *! UVM_FLAGS_ON $end
$var parameter 32 +! UVM_FLAGS_OFF $end
$var parameter 32 ,! UVM_COPY $end
$var parameter 32 -! UVM_NOCOPY $end
$var parameter 32 .! UVM_COMPARE $end
$var parameter 32 /! UVM_NOCOMPARE $end
$var parameter 32 0! UVM_PRINT $end
$var parameter 32 1! UVM_NOPRINT $end
$var parameter 32 2! UVM_RECORD $end
$var parameter 32 3! UVM_NORECORD $end
$var parameter 32 4! UVM_PACK $end
$var parameter 32 5! UVM_NOPACK $end
$var parameter 32 6! UVM_PHYSICAL $end
$var parameter 32 7! UVM_ABSTRACT $end
$var parameter 32 8! UVM_READONLY $end
$var parameter 32 9! UVM_NODEFPRINT $end
$var parameter 32 :! UVM_MACRO_EXTRAS $end
$var parameter 32 ;! UVM_FLAGS $end
$var parameter 32 <! UVM_UNPACK $end
$var parameter 32 =! UVM_CHECK_FIELDS $end
$var parameter 32 >! UVM_END_DATA_EXTRA $end
$var parameter 32 ?! UVM_START_FUNCS $end
$var parameter 32 @! UVM_SET $end
$var parameter 32 A! UVM_SETINT $end
$var parameter 32 B! UVM_SETOBJ $end
$var parameter 32 C! UVM_SETSTR $end
$var parameter 32 D! UVM_END_FUNCS $end
$var parameter 32 E! UVM_STR_CRC_POLYNOMIAL $end
$var parameter 32 F! UVM_STDOUT $end
$var parameter 32 G! UVM_LINE_WIDTH $end
$var parameter 32 H! UVM_NUM_LINES $end
$var parameter 32 I! UVM_SMALL_STRING $end
$var parameter 32 J! UVM_LARGE_STRING $end
$var reg 1 K! uvm_start_uvm_declarations $end
$var integer 32 L! uvm_global_random_seed $end
$var integer 32 M! UVM_UNBOUNDED_CONNECTIONS $end

$scope function uvm_hdl_check_path $end
$var integer 32 N! uvm_hdl_check_path $end
$upscope $end

$scope function uvm_hdl_deposit $end
$var integer 32 O! uvm_hdl_deposit $end
$var reg 1024 P! value [1023:0] $end
$upscope $end

$scope function uvm_hdl_force $end
$var integer 32 Q! uvm_hdl_force $end
$var reg 1024 R! value [1023:0] $end
$upscope $end

$scope task uvm_hdl_force_time $end
$var reg 1024 S! value [1023:0] $end
$var time 64 T! force_time $end
$upscope $end

$scope function uvm_hdl_release $end
$var integer 32 U! uvm_hdl_release $end
$var reg 1024 V! value [1023:0] $end
$upscope $end

$scope function uvm_hdl_read $end
$var integer 32 W! uvm_hdl_read $end
$var reg 1024 X! value [1023:0] $end
$upscope $end

$scope function uvm_dpi_get_next_arg $end
$upscope $end

$scope function uvm_dpi_get_tool_name $end
$upscope $end

$scope function uvm_dpi_get_tool_version $end
$upscope $end

$scope function uvm_re_match $end
$var integer 32 Y! uvm_re_match $end
$var integer 32 Z! e $end
$var integer 32 [! es $end
$var integer 32 \! s $end
$var integer 32 ]! ss $end
$upscope $end

$scope function uvm_dump_re_cache $end
$upscope $end

$scope function uvm_glob_to_re $end
$upscope $end

$scope function uvm_revision_string $end
$upscope $end

$scope function uvm_radix_to_string $end
$var integer 32 ^! radix $end
$upscope $end

$scope function uvm_instance_scope $end
$var reg 8 _! c [7:0] $end
$var integer 32 `! pos $end
$upscope $end

$scope function uvm_oneway_hash $end
$var integer 32 a! uvm_oneway_hash $end
$var integer 32 b! seed $end
$var reg 1 c! msb $end
$var reg 8 d! current_byte [7:0] $end
$var reg 32 e! crc1 [31:0] $end
$upscope $end

$scope function uvm_create_random_seed $end
$var integer 32 f! uvm_create_random_seed $end
$upscope $end

$scope function uvm_object_value_str $end
$upscope $end

$scope function uvm_leaf_scope $end
$var reg 8 g! scope_separator [7:0] $end
$var reg 8 h! bracket_match [7:0] $end
$var integer 32 i! pos $end
$var integer 32 j! bmatches $end
$upscope $end

$scope function uvm_vector_to_string $end
$var reg 4096 k! value [4095:0] $end
$var integer 32 l! size $end
$var integer 32 m! radix $end
$upscope $end

$scope function uvm_get_array_index_int $end
$var integer 32 n! uvm_get_array_index_int $end
$var reg 1 o! is_wildcard $end
$var integer 32 p! i $end
$upscope $end

$scope function uvm_get_array_index_string $end
$var reg 1 q! is_wildcard $end
$var integer 32 r! i $end
$upscope $end

$scope function uvm_is_array $end
$var reg 1 s! uvm_is_array $end
$upscope $end

$scope function uvm_has_wildcard $end
$upscope $end

$scope task run_test $end
$upscope $end

$scope function global_stop_request $end
$upscope $end

$scope function set_global_timeout $end
$var time 64 t! timeout $end
$var reg 1 u! overridable $end
$upscope $end

$scope function set_global_stop_timeout $end
$var time 64 v! timeout $end
$upscope $end

$scope function uvm_report_enabled $end
$var reg 1 w! uvm_report_enabled $end
$var integer 32 x! verbosity $end
$var reg 2 y! severity [1:0] $end
$upscope $end

$scope function uvm_report $end
$var reg 2 z! severity [1:0] $end
$var integer 32 {! verbosity $end
$var integer 32 |! line $end
$upscope $end

$scope function uvm_report_info $end
$var integer 32 }! verbosity $end
$var integer 32 ~! line $end
$upscope $end

$scope function uvm_report_warning $end
$var integer 32 !" verbosity $end
$var integer 32 "" line $end
$upscope $end

$scope function uvm_report_error $end
$var integer 32 #" verbosity $end
$var integer 32 $" line $end
$upscope $end

$scope function uvm_report_fatal $end
$var integer 32 %" verbosity $end
$var integer 32 &" line $end
$upscope $end

$scope function uvm_string_to_severity $end
$var reg 1 '" uvm_string_to_severity $end
$var reg 2 (" sev [1:0] $end
$upscope $end

$scope function uvm_string_to_action $end
$upscope $end

$scope function set_config_int $end
$var reg 4096 )" value [4095:0] $end
$upscope $end

$scope function set_config_object $end
$var reg 1 *" clone $end
$upscope $end

$scope function set_config_string $end
$upscope $end

$scope function uvm_is_match $end
$var reg 1 +" uvm_is_match $end
$upscope $end

$scope function uvm_string_to_bits $end
$var reg 115200 ," uvm_string_to_bits [115199:0] $end
$upscope $end

$scope function uvm_bits_to_string $end
$var reg 115200 -" str [115199:0] $end
$upscope $end

$scope task uvm_wait_for_nba_region $end
$var integer 32 ." nba $end
$var integer 32 /" next_nba $end
$upscope $end

$scope function uvm_split_string $end
$upscope $end

$scope function uvm_hdl_concat2string $end
$upscope $end
$upscope $end

$scope begin fifo_pkg $end
$upscope $end

$scope begin std $end
$upscope $end
$enddefinitions $end
#0
$dumpvars
0!
0"
0#
0$
b0 \
b0 ]
b0 _
b0 `
1e
b0 f
b0 g
0t
b0 u
b0 v
0q!
0s!
0'"
b0 ("
0+"
bx ,"
bx -"
bx P!
bx R!
bx S!
bx V!
bx X!
1K!
1c!
b1110001 d!
b11000100111111101011010001011 e!
bx k!
0o!
0u!
1w!
b0 y!
b0 z!
bx )"
0*"
b1000 %
b100 &
b101 [
b101 ^
b1000 a
b100 b
b10000 c
b100 d
b100 s
b10000000000 $!
b1000000000000 %!
b1111000000000000000000000000 &!
b10001 '!
b10101010101 (!
b101010101 )!
b101010101 *!
b0 +!
b1 ,!
b10 -!
b100 .!
b1000 /!
b10000 0!
b100000 1!
b1000000 2!
b10000000 3!
b100000000 4!
b1000000000 5!
b10000000000000 6!
b100000000000000 7!
b1000000000000000 8!
b10000000000000000 9!
b100000000000000000 :!
b100000000000000001 ;!
b100000000000000010 <!
b100000000000000011 =!
b100000000000000100 >!
b100000000000000101 ?!
b100000000000000110 @!
b100000000000000110 A!
b100000000000000111 B!
b100000000000001000 C!
b100000000000001000 D!
b100110000010001110110110110 E!
b1 F!
b1111000 G!
b1111000 H!
b1110111111 I!
b11100000111111111 J!
b0 Y!
b1 Z!
b0 [!
b0 \!
b0 ]!
b0 ^!
b0 g!
b0 h!
b0 i!
b0 j!
b0 r!
b0 N!
b0 O!
b0 Q!
b0 U!
b0 W!
b1101001011000001111100000011110 L!
b101110 _!
b111 `!
b11011101100010100101100100000101 a!
b1101001011000001111100000011110 b!
b1011010111100010000110010100 f!
b0 l!
b0 m!
b0 n!
b0 p!
b111110100 x!
b0 {!
b0 |!
b111110100 }!
b10010111111 ~!
b0 !"
b0 ""
b0 #"
b0 $"
b0 %"
b0 &"
b100101 ."
b100101 /"
b11111111111111111111111111111111 M!
bx T!
bx t!
bx v!
0B
0A
0@
0?
0F
0E
0D
0C
0K
0J
0I
0H
0G
0P
0O
0N
0M
0L
0U
0T
0S
0R
0Q
0Z
0Y
0X
0W
0V
0l
0k
0j
0i
0h
0q
0p
0o
0n
0m
1r
x{
xz
xy
xx
xw
x"!
x!!
x~
x}
x|
x#!
0>
0=
0;
0:
x.
x-
x,
x+
x*
x)
x(
x'
0/
10
x8
x7
x6
x5
x4
x3
x2
x1
x9
x<
$end
#5
1!
1:
b100110 /"
b100110 ."
08
07
06
05
04
13
02
11
19
1"!
0!!
0~
0}
0|
1{
0z
0y
0x
0w
0#!
#10
1"
1#
1$
0!
1=
1>
1;
0:
b100111 /"
b100011001100010001010001001 f!
b11100010001110011010011011000000 f!
b11100000111001100001100000110001 f!
b11011000111000010000100101000111 f!
b11011101100010100101100100000110 f!
b101000 /"
b100111 ."
b101000 ."
1<
#15
1!
1:
b1 u
b1 v
0.
0-
0,
0+
0*
1)
0(
1'
1B
0"!
1!!
1K
1z
b101001 /"
b101001 ."
17
16
15
12
#20
0"
0!
0=
0:
#25
1!
1:
b11 u
b10 v
0B
1A
1"!
1J
0{
#30
1"
0!
1=
0:
b11 `
b101010 /"
b100011001100010001010001011 f!
b11100010001110011010011011000010 f!
b11100000111001100001100000110011 f!
b11011000111000010000100101001001 f!
b11011101100010100101100100001000 f!
b101011 /"
b101010 ."
b101011 ."
#35
1!
1:
b10 u
b11 v
1B
0"!
0!!
1~
0K
1y
b101100 /"
b101100 ."
07
06
14
01
#40
0"
0!
0=
0:
#45
1!
1:
b110 u
b100 v
0B
0A
1@
1"!
1I
1{
#50
1"
0!
1=
0:
b110 `
b11 _
1Z
1Y
0r
b101101 /"
b100011001100010001010001110 f!
b11100010001110011010011011000101 f!
b11100000111001100001100000110110 f!
b11011000111000010000100101001100 f!
b11011101100010100101100100001011 f!
b101110 /"
b101101 ."
b101110 ."
#55
1!
1:
b111 u
b101 v
1B
0"!
1!!
1K
0z
b101111 /"
b101111 ."
04
03
#60
0"
0!
0=
0:
#65
1!
1:
b101 u
b110 v
0B
1A
1"!
0J
0{
#70
1"
0!
1=
0:
0e
b101 `
b110 _
00
0Z
1X
1q
1l
b110000 /"
b100011001100010001010010010 f!
b11100010001110011010011011001001 f!
b11100000111001100001100000111010 f!
b11011000111000010000100101010000 f!
b11011101100010100101100100001111 f!
b110001 /"
b110000 ."
b110001 ."
#75
1!
1:
b100 u
b111 v
1B
0"!
0!!
0~
1}
0K
1x
b110010 /"
b110010 ."
17
16
14
13
02
11
#80
0"
0!
0=
0:
#85
1!
1:
b1100 u
b1000 v
0B
0A
0@
1?
1"!
1H
1{
#90
1"
0!
1=
0:
b1 f
b1 g
b1100 `
b101 _
1Z
0Y
1F
0q
1p
1P
1k
1-
1,
1+
1(
b110011 /"
b100011001100010001010010111 f!
b11100010001110011010011011001110 f!
b11100000111001100001100000111111 f!
b11011000111000010000100101010101 f!
b11011101100010100101100100010100 f!
b110100 /"
b110011 ."
b110100 ."
#95
1!
1:
b1 ]
b1101 u
b1001 v
1B
0"!
1!!
1K
1z
b110101 /"
b110101 ."
18
05
04
12
01
#100
0"
0!
0=
0:
#105
1!
1:
b1111 u
b1010 v
b1 \
1U
0B
1A
1"!
1J
0{
#110
1"
0!
1=
0:
b1111 `
b1100 _
b11 f
b10 g
0F
1E
1q
1O
0Z
1W
0l
b110110 /"
b100011001100010001010011101 f!
b11100010001110011010011011010100 f!
b11100000111001100001100001000101 f!
b11011000111000010000100101011011 f!
b11011101100010100101100100011010 f!
b110111 /"
b110110 ."
b110111 ."
#115
1!
1:
b11 ]
b1110 u
b1011 v
1B
0"!
0!!
1~
0K
0y
b111000 /"
b111000 ."
08
07
06
15
02
#120
0"
0!
0=
0:
#125
1!
1:
b1010 u
b1100 v
b11 \
1T
0B
0A
1@
1"!
0I
1{
#130
1"
0!
1=
0:
b10 f
b11 g
b1010 `
b1111 _
1Z
1Y
1F
0q
0p
1o
0P
1j
0-
0,
1*
0'
b111001 /"
b100011001100010001010100100 f!
b11100010001110011010011011011011 f!
b11100000111001100001100001001100 f!
b11011000111000010000100101100010 f!
b11011101100010100101100100100001 f!
b111010 /"
b111001 ."
b111010 ."
#135
1!
1:
b10 ]
b1011 u
b1101 v
1B
0"!
1!!
1K
0z
b111011 /"
b111011 ."
17
03
12
#140
0"
0!
0=
0:
#145
1!
1:
b1001 u
b1110 v
b10 \
0U
0B
1A
1"!
0J
0{
#150
1"
0!
1=
0:
b1001 `
b1010 _
b110 f
b100 g
0F
0E
1D
1q
1N
0Z
0X
1l
b111100 /"
b100011001100010001010101100 f!
b11100010001110011010011011100011 f!
b11100000111001100001100001010100 f!
b11011000111000010000100101101010 f!
b11011101100010100101100100101001 f!
b111101 /"
b111100 ."
b111101 ."
#155
1!
1:
b110 ]
b1000 u
b1111 v
1B
0"!
0!!
0~
0}
1|
0K
1w
b111110 /"
b111110 ."
07
05
14
11
#160
0"
0!
0=
0:
#165
1!
1:
b11000 u
b10000 v
b110 \
1S
0B
0A
0@
0?
1"!
1G
1{
#170
1"
0!
1=
0:
b111 f
b101 g
b11000 `
b1001 _
1Z
0Y
1F
0q
1p
1P
0k
0*
0)
b111111 /"
b100011001100010001010110101 f!
b11100010001110011010011011101100 f!
b11100000111001100001100001011101 f!
b11011000111000010000100101110011 f!
b11011101100010100101100100110010 f!
b1000000 /"
b111111 ."
b1000000 ."
#175
1!
1:
b111 ]
b11001 u
b10001 v
1B
0"!
1!!
1K
1z
b1000001 /"
b1000001 ."
17
04
#180
0"
0!
0=
0:
#185
1!
1:
b11011 u
b10010 v
b111 \
1U
0B
1A
1"!
1J
0{
#190
1"
0!
1=
0:
b11011 `
b11000 _
b101 f
b110 g
0F
1E
1q
0O
0Z
1V
0l
b1000010 /"
b100011001100010001010111111 f!
b11100010001110011010011011110110 f!
b11100000111001100001100001100111 f!
b11011000111000010000100101111101 f!
b11011101100010100101100100111100 f!
b1000011 /"
b1000010 ."
b1000011 ."
#195
1!
1:
b101 ]
b11010 u
b10011 v
1B
0"!
0!!
1~
0K
1y
b1000100 /"
b1000100 ."
16
15
13
02
01
#200
0"
0!
0=
0:
#205
1!
1:
b11110 u
b10100 v
b101 \
0T
0B
0A
1@
1"!
1I
1{
#210
1"
0!
1=
0:
b100 f
b111 g
b11110 `
b11011 _
1Z
1Y
1F
0q
0p
0o
1n
0P
1i
1-
1,
1*
1)
0(
1'
b1000101 /"
b100011001100010001011001010 f!
b11100010001110011010011100000001 f!
b11100000111001100001100001110010 f!
b11011000111000010000100110001000 f!
b11011101100010100101100101000111 f!
b1000110 /"
b1000101 ."
b1000110 ."
#215
1!
1:
b100 ]
b11111 u
b10101 v
1B
0"!
1!!
1K
0z
1#!
b1000111 /"
b1000111 ."
18
07
14
03
12
#220
0"
0!
0=
0:
#225
1!
1:
1t
b11101 u
b10110 v
b100 \
1/
0U
0B
1A
0J
0#!
#230
1"
0!
1=
0:
b11101 `
b11110 _
b1100 f
b1000 g
0F
0E
0D
1C
1q
1M
0Z
1X
1l
b1001000 /"
b100011001100010001011010110 f!
b11100010001110011010011100001101 f!
b11100000111001100001100001111110 f!
b11011000111000010000100110010100 f!
b11011101100010100101100101010011 f!
b1001001 /"
b1001000 ."
b1001001 ."
#235
1!
1:
b1100 ]
0t
1"!
0/
0{
1#!
b1001010 /"
b1001010 ."
17
05
04
02
11
#240
0"
0!
0=
0:
#245
1!
1:
b11100 u
b10111 v
1t
b1100 \
1/
1R
1B
0K
0#!
#250
1"
0!
1=
0:
b1101 f
b1001 g
b11100 `
b11101 _
1Z
0Y
1F
0q
1p
1P
1k
1.
0+
0*
1(
0'
b1001011 /"
b100011001100010001011100011 f!
b11100010001110011010011100011010 f!
b11100000111001100001100010001011 f!
b11011000111000010000100110100001 f!
b11011101100010100101100101100000 f!
b1001100 /"
b1001011 ."
b1001100 ."
#255
1!
1:
b1101 ]
0t
0"!
0!!
0~
1}
0/
0x
1#!
b1001101 /"
b1001101 ."
08
13
#260
0"
0!
0=
0:
#265
1!
1:
b10100 u
b11000 v
1t
b1101 \
1/
1U
0B
0A
0@
1?
0H
0#!
#270
1"
0!
1=
0:
b10100 `
b11100 _
b1111 f
b1010 g
0F
1E
1q
1O
0Z
0l
b1001110 /"
b100011001100010001011110001 f!
b11100010001110011010011100101000 f!
b11100000111001100001100010011001 f!
b11011000111000010000100110101111 f!
b11011101100010100101100101101110 f!
b1001111 /"
b1001110 ."
b1001111 ."
#275
1!
1:
b1111 ]
0t
1"!
0/
1{
1#!
b1010000 /"
b1010000 ."
18
14
03
01
#280
0"
0!
0=
0:
#285
1!
1:
b10101 u
b11001 v
1t
b1111 \
1/
1T
1B
1K
0#!
#290
1"
0!
1=
0:
b1110 f
b1011 g
b10101 `
b10100 _
0W
1F
0q
0p
1o
0P
0j
0.
0-
0,
1+
0(
b1010001 /"
b100011001100010001100000000 f!
b11100010001110011010011100110111 f!
b11100000111001100001100010101000 f!
b11011000111000010000100110111110 f!
b11011101100010100101100101111101 f!
b1010010 /"
b1010001 ."
b1010010 ."
#295
1!
1:
b1110 ]
0t
0"!
1!!
0/
1z
1#!
b1010011 /"
b1010011 ."
07
12
#300
0"
0!
0=
0:
#305
1!
1:
b10111 u
b11010 v
1t
b1110 \
1/
0U
0B
1A
1J
0#!
#310
1"
0!
1=
0:
b10111 `
b10101 _
b1010 f
b1100 g
0F
0E
1D
1q
0N
1Z
1l
b1010100 /"
b100011001100010001100010000 f!
b11100010001110011010011101000111 f!
b11100000111001100001100010111000 f!
b11011000111000010000100111001110 f!
b11011101100010100101100110001101 f!
b1010101 /"
b1010100 ."
b1010101 ."
#315
1!
1:
b1010 ]
0t
1"!
0/
0{
1#!
b1010110 /"
b1010110 ."
08
17
06
04
11
#320
0"
0!
0=
0:
#325
1!
1:
b10110 u
b11011 v
1t
b1010 \
1/
0S
1B
0K
0#!
#330
1"
0!
1=
0:
b1011 f
b1101 g
b10110 `
b10111 _
1Y
1F
0q
1p
1P
0k
1-
0)
1(
b1010111 /"
b100011001100010001100100001 f!
b11100010001110011010011101011000 f!
b11100000111001100001100011001001 f!
b11011000111000010000100111011111 f!
b11011101100010100101100110011110 f!
b1011000 /"
b1010111 ."
b1011000 ."
#335
1!
1:
b1011 ]
0t
0"!
0!!
1~
0/
0y
1#!
b1011001 /"
b1011001 ."
16
15
#340
0"
0!
0=
0:
#345
1!
1:
b10010 u
b11100 v
1t
b1011 \
1/
1U
0B
0A
1@
0I
0#!
#350
1"
0!
1=
0:
b10010 `
b10110 _
b1001 f
b1110 g
0F
1E
1q
0O
0Z
0l
b1011010 /"
b100011001100010001100110011 f!
b11100010001110011010011101101010 f!
b11100000111001100001100011011011 f!
b11011000111000010000100111110001 f!
b11011101100010100101100110110000 f!
b1011011 /"
b1011010 ."
b1011011 ."
#355
1!
1:
b1001 ]
0t
1"!
0/
1{
1#!
b1011100 /"
b1011100 ."
07
06
05
02
#360
0"
0!
0=
0:
#365
1!
1:
b10011 u
b11101 v
1t
b1001 \
1/
0T
1B
1K
0#!
#370
1"
0!
1=
0:
b1000 f
b1111 g
b10011 `
b10010 _
0X
1F
0q
0p
0o
0n
1m
0P
1h
0-
0+
1*
1'
b1011101 /"
b100011001100010001101000110 f!
b11100010001110011010011101111101 f!
b11100000111001100001100011101110 f!
b11011000111000010000101000000100 f!
b11011101100010100101100111000011 f!
b1011110 /"
b1011101 ."
b1011110 ."
#375
1!
1:
b1000 ]
0t
0"!
1!!
0/
0z
1#!
b1011111 /"
b1011111 ."
17
16
14
#380
0"
0!
0=
0:
#385
1!
1:
b10001 u
b11110 v
1t
b1000 \
1/
0U
0B
1A
0J
0#!
#390
1"
0!
1=
0:
b10001 `
b10011 _
b11000 f
b10000 g
0F
0E
0D
0C
1q
1L
1Z
1l
b1100000 /"
b100011001100010001101011010 f!
b11100010001110011010011110010001 f!
b11100000111001100001100100000010 f!
b11011000111000010000101000011000 f!
b11011101100010100101100111010111 f!
b1100001 /"
b1100000 ."
b1100001 ."
#395
1!
1:
b11000 ]
0t
1"!
0/
0{
1#!
b1100010 /"
b1100010 ."
07
06
15
12
01
#400
0"
0!
0=
0:
#405
1!
1:
b10000 u
b11111 v
1t
b11000 \
1/
1Q
1B
0K
0#!
#410
1"
0!
1=
0:
b11001 f
b10001 g
b10000 `
b10001 _
0Y
1F
0q
1p
1P
1k
1-
0*
b1100011 /"
b100011001100010001101101111 f!
b11100010001110011010011110100110 f!
b11100000111001100001100100010111 f!
b11011000111000010000101000101101 f!
b11011101100010100101100111101100 f!
b1100100 /"
b1100011 ."
b1100100 ."
#415
1!
1:
b11001 ]
0t
0"!
0!!
0~
0}
0|
0/
0w
1#!
b1100101 /"
b1100101 ."
04
13
11
#420
0"
0!
0=
0:
#425
1!
1:
b0 u
b0 v
1t
b11001 \
1/
1U
0B
0A
0@
0?
0G
0#!
#430
1"
0!
1=
0:
b0 `
b10000 _
b11011 f
b10010 g
0F
1E
1q
1O
0Z
0l
b1100110 /"
b100011001100010001110000101 f!
b11100010001110011010011110111100 f!
b11100000111001100001100100101101 f!
b11011000111000010000101001000011 f!
b11011101100010100101101000000010 f!
b1100111 /"
b1100110 ."
b1100111 ."
#435
1!
1:
b11011 ]
0t
1"!
0/
1{
1#!
b1101000 /"
b1101000 ."
18
16
14
03
02
#440
0"
0!
0=
0:
#445
1!
1:
b1 u
b1 v
1t
b11011 \
1/
1T
1B
1K
0#!
#450
1"
0!
1=
0:
b11010 f
b10011 g
b1 `
b0 _
0V
1F
0q
0p
1o
0P
1j
1,
1+
1)
0(
0'
b1101001 /"
b100011001100010001110011100 f!
b11100010001110011010011111010011 f!
b11100000111001100001100101000100 f!
b11011000111000010000101001011010 f!
b11011101100010100101101000011001 f!
b1101010 /"
b1101001 ."
b1101010 ."
#455
1!
1:
b11010 ]
0t
0"!
1!!
0/
1z
1#!
b1101011 /"
b1101011 ."
04
13
#460
0"
0!
0=
0:
#465
1!
1:
b11 u
b10 v
1t
b11010 \
1/
0U
0B
1A
1J
0#!
#470
1"
0!
1=
0:
b11 `
b1 _
b11110 f
b10100 g
0F
0E
1D
1q
1N
1Z
1l
b1101100 /"
b100011001100010001110110100 f!
b11100010001110011010011111101011 f!
b11100000111001100001100101011100 f!
b11011000111000010000101001110010 f!
b11011101100010100101101000110001 f!
b1101101 /"
b1101100 ."
b1101101 ."
#475
1!
1:
b11110 ]
0t
1"!
0/
0{
1#!
b1101110 /"
b1101110 ."
17
06
05
#480
0"
0!
0=
0:
#485
1!
1:
b10 u
b11 v
1t
b11110 \
1/
1S
1B
0K
0#!
#490
1"
0!
1=
0:
b11111 f
b10101 g
b10 `
b11 _
1Y
1F
0q
1p
1P
0k
1.
0-
1*
0)
1(
b1101111 /"
b100011001100010001111001101 f!
b11100010001110011010100000000100 f!
b11100000111001100001100101110101 f!
b11011000111000010000101010001011 f!
b11011101100010100101101001001010 f!
b1110000 /"
b1101111 ."
b1110000 ."
#495
1!
1:
b11111 ]
0t
0"!
0!!
1~
0/
1y
1#!
b1110001 /"
b1110001 ."
08
16
15
14
01
#500
0"
0!
0=
0:
#505
1!
1:
b110 u
b100 v
1t
b11111 \
1/
1U
0B
0A
1@
1I
0#!
